{
    "meeting_schema": {
        "title":
        {
            "required": true,
            "type": "string"
        },

      "participants": {
              "type": "list",
              "schema": {
                  "type": "dict",
                  "schema": {
                      "participant_name": {"type": "string"},
                      "email_id": {"type": "string"},
                      "RSVP": {"type": "string"}
                  }
              }
          },
            "start_time":
                {
                    "required": true,
                    "type": "string"
        },

            "end_time":
                {
                    "required": true,
                    "type": "string"
        }}
}
